{
    "$schema": "http://schema.management.azure.com/schemas/2015-01-01/deploymentTemplate.json#",
    "contentVersion": "1.0.0.0",
    "variables": {
        "hostingPlanName":"[replace(resourceGroup().name,'.','')]",
        "siteName": "[concat(toLower(variables('hostingPlanName')), uniqueString(resourceGroup().id))]",
        "sku":"s1",
        "workerSize":"0",
        "repoURL":"https://PrashantPratap@bitbucket.org/PrashantPratap/AppService.L200.OSS.Nodejs.3.git",
        "branch":"master"
    },
    "resources": [
      {
        "apiVersion": "2015-08-01",
        "name": "[variables('hostingPlanName')]",
        "type": "Microsoft.Web/serverfarms",
        "location": "[resourceGroup().location]",
        "sku": {
          "name": "[variables('sku')]",
          "capacity": "[variables('workerSize')]"
        },
        "properties": {
          "name": "[variables('hostingPlanName')]"
        }
      },
      {
        "apiVersion": "2015-08-01",
        "name": "[variables('siteName')]",
        "type": "Microsoft.Web/sites",
        "location": "[resourceGroup().location]",
        "dependsOn": [
          "[resourceId('Microsoft.Web/serverfarms', variables('hostingPlanName'))]"
        ],
        "properties": {
          "serverFarmId": "[variables('hostingPlanName')]"
        },
        "resources": [
          {
            "apiVersion": "2015-08-01",
            "name": "web",
            "type": "sourcecontrols",
            "dependsOn": [
              "[resourceId('Microsoft.Web/Sites', variables('siteName'))]"
            ],
            "properties": {
              "RepoUrl": "[variables('repoURL')]",
              "branch": "[variables('branch')]",
              "IsManualIntegration": true
            }
          }
        ]
      }
    ]
  }